<?xml version="1.0" standalone="no"?>
<!DOCTYPE svg PUBLIC "-//W3C//DTD SVG 1.1//EN" "http://www.w3.org/Graphics/SVG/1.1/DTD/svg11.dtd" >
<svg xmlns="http://www.w3.org/2000/svg">
<metadata>Generated by IcoMoon</metadata>
<defs>
<font id="icomoon" horiz-adv-x="1024">
<font-face units-per-em="1024" ascent="960" descent="-64" />
<missing-glyph horiz-adv-x="1024" />
<glyph unicode="&#x20;" horiz-adv-x="512" d="" />
<glyph unicode="&#xe900;" glyph-name="arrow-down" d="M1022.065 679.163l-47.738 47.738-462.327-462.112-462.327 462.112-47.738-47.738 510.065-510.065z" />
<glyph unicode="&#xe901;" glyph-name="arrow-right" d="M1004.862 580.032c-19.568 72.037-52.899 136.548-100.637 194.822-45.588 55.694-101.282 97.841-164.932 129.882-49.028 24.729-101.067 41.287-156.116 46.878-1.505 0.215-3.010 2.58-4.301 3.871-44.512 0-89.025 0-133.537 0-33.546-8.601-67.521-15.268-100.422-26.234-61.715-20.643-116.549-53.759-166.653-95.906-71.177-59.78-118.7-135.042-149.235-221.057-12.257-34.621-15.483-72.252-23.009-108.593-0.645-3.010-2.795-5.806-4.086-8.601 0-30.105 0-60.21 0-90.315 1.505-2.795 3.656-5.591 4.086-8.601 7.311-36.986 13.762-74.402 22.579-111.173 2.15-8.386 11.612-19.138 19.998-21.289 21.504-6.021 31.61 11.397 24.944 37.416-8.601 33.761-20.643 67.736-23.439 102.142-7.741 94.831 9.892 185.146 57.415 269.010 45.157 79.563 106.443 142.354 187.726 184.286 83.219 43.007 170.523 64.081 265.139 52.254 48.598-6.021 95.046-17.418 139.558-37.416 91.605-41.502 162.567-105.798 214.176-192.242 52.899-88.595 69.026-185.146 59.78-285.567-6.236-68.381-30.535-132.247-67.736-190.737-36.341-56.984-81.929-105.583-138.483-141.924-55.264-35.266-114.829-60.21-181.060-70.747-58.49-9.462-116.119-10.537-172.244 5.161-46.878 13.117-91.605 34.191-137.193 52.469-15.052 6.021-28.17 6.881-35.911-8.816-7.311-14.837 1.075-24.514 14.407-32.47 56.984-33.546 117.84-57.63 183.856-61.715 55.049-3.441 112.034-7.956 165.793 1.505 121.71 21.504 224.282 80.853 302.77 178.48 45.588 56.554 78.488 119.775 96.766 190.092 6.881 26.664 11.612 53.974 17.418 81.068 0 34.406 0 68.811 0 103.217-5.591 26.879-10.322 54.189-17.418 80.853zM572.855 232.319c-8.171-11.612-10.752-23.009 2.795-33.331 12.042-9.247 21.504-6.881 31.61 3.441 74.832 75.047 149.88 150.095 225.142 224.927 13.762 13.547 13.762 26.664 0 40.427-75.262 74.617-150.31 149.665-225.142 224.712-10.967 11.182-21.289 12.902-33.115 1.72-12.472-12.042-10.967-22.794 1.075-34.621 62.145-61.5 123.646-123.646 185.791-185.146 8.601-8.386 18.493-15.483 29.675-24.729-71.822-71.607-138.698-138.483-205.789-205.144-4.301-4.086-8.816-7.741-12.042-12.257zM713.703 425.636c17.203 0 28.6 4.301 28.17 22.579-0.43 16.773-11.182 21.289-27.525 21.073-83.864-0.86-167.943-0.43-251.807-0.43-84.724 0-169.448-0.215-253.957 0.215-16.128 0-26.234-3.871-26.019-22.364 0.215-19.353 12.472-20.858 27.525-20.858 167.943 0.215 335.886 0.215 503.614-0.215z" />
<glyph unicode="&#xe902;" glyph-name="close" d="M735.207 672.712l-223.207-223.207-223.207 223.207-1.505-1.505 223.207-223.207-223.207-223.207 1.505-1.505 223.207 223.207 223.207-223.207 1.505 1.505-223.207 223.207 223.207 223.207zM873.26 809.26c-96.551 96.551-224.712 149.665-361.26 149.665s-264.709-53.114-361.26-149.665c-96.551-96.551-149.665-224.712-149.665-361.26s53.114-264.709 149.665-361.26c96.551-96.551 224.712-149.665 361.26-149.665s264.709 53.114 361.26 149.665c96.551 96.551 149.665 224.712 149.665 361.26s-53.114 264.709-149.665 361.26zM512-60.774c-280.622 0-508.774 228.153-508.774 508.774s228.153 508.774 508.774 508.774 508.774-228.153 508.774-508.774-228.153-508.774-508.774-508.774z" />
</font></defs></svg>